[
  {
    "49002010965": {
      "hasDebt": true,
      "creditModifier": null
    },
    "49002010976": {
      "hasDebt": false,
      "creditModifier": 100
    },
    "49002010987": {
      "hasDebt": false,
      "creditModifier": 300
    },
    "49002010998": {
      "hasDebt": false,
      "creditModifier": 1000
    }
  }
]